5 Learn R From Scratch – Learn R From Scratch
…
You can also combine multiple grouping factors:

# Mean, median, and standard deviation of price by clarity and cut

diamonds %>% group_by(clarity, cut) %>%
  summarise(Mean = mean(price),
            Median = median(price),
            "Standard deviation" = sd(price))

# A tibble: 40 × 5
# Groups:   clarity [8]
   clarity cut        Mean Median `Standard deviation`
   <ord>   <ord>     <dbl>  <dbl>                <dbl>
 1 I1      Fair      3704.  2397                 3099.
 2 I1      Good      3597.  3118.                2285.
 3 I1      Very Good 4078.  3283                 2720.
 4 I1      Premium   3947.  3261                 2827.
 5 I1      Ideal     4336.  3674.                2671.
 6 SI2     Fair      5174.  3681                 3928.
 7 SI2     Good      4580.  3770                 3901.
 8 SI2     Very Good 4989.  4042                 4126.
 9 SI2     Premium   5546.  4291                 4488.
10 SI2     Ideal     4756.  4060.                4252.
# ℹ 30 more rows
…
Compute standardized prices for each diamond.

# Standardizing prices by cut category

diamonds %>% group_by(cut) %>%
  mutate(Mean = mean(price),
         "Standard deviation" = sd(price)) %>%
  ungroup() %>%
  mutate(centered_price = price - Mean,
         standardized_price = centered_price / `Standard deviation`) %>%
  select(cut, price, Mean, `Standard deviation`,
         centered_price, standardized_price) %>%
  arrange(cut)

# A tibble: 53,940 × 6
   cut   price  Mean `Standard deviation` centered_price standardized_price
   <ord> <int> <dbl>                <dbl>          <dbl>              <dbl>
 1 Fair    337 4359.                3560.         -4022.             -1.13 
 2 Fair   2757 4359.                3560.         -1602.             -0.450
 3 Fair   2759 4359.                3560.         -1600.             -0.449
 4 Fair   2762 4359.                3560.         -1597.             -0.448
 5 Fair   2762 4359.                3560.         -1597.             -0.448
 6 Fair   2763 4359.                3560.         -1596.             -0.448
 7 Fair   2763 4359.                3560.         -1596.             -0.448
 8 Fair   2777 4359.                3560.         -1582.             -0.444
 9 Fair   2782 4359.                3560.         -1577.             -0.443
10 Fair   2788 4359.                3560.         -1571.             -0.441
# ℹ 53,930 more rows
…
